INDEX VERSION 1.126+C:\Users\USER\Desktop\Escritorio2\p3_201710\.metadata\.plugins\org.eclipse.jdt.core
1115467115.index
30765161.index
259671370.index
3133528496.index
486215760.index
1697886153.index
573543369.index
3974580528.index
1995173708.index
163172794.index
4041092966.index
4108727661.index
1498219845.index
3065916431.index
4155206848.index
305854171.index
1299022128.index
